<?xml version="1.0" standalone="no"?>
<!DOCTYPE svg PUBLIC "-//W3C//DTD SVG 1.1//EN" "http://www.w3.org/Graphics/SVG/1.1/DTD/svg11.dtd" >
<!--
2017-3-3: Created with FontForge (http://fontforge.org)
-->
<svg xmlns="http://www.w3.org/2000/svg" xmlns:xlink="http://www.w3.org/1999/xlink" version="1.1">
<metadata>
Created by FontForge 20160405 at Fri Mar  3 06:20:27 2017
 By Apache
Copyright (c) 2017, Apache
</metadata>
<defs>
<font id="Flaticon" horiz-adv-x="512" >
  <font-face 
    font-family="Flaticon"
    font-weight="400"
    font-stretch="normal"
    units-per-em="512"
    panose-1="2 0 5 3 0 0 0 0 0 0"
    ascent="448"
    descent="-64"
    bbox="-0.012207 -64.0166 512.001 448.012"
    underline-thickness="25.6"
    underline-position="-51.2"
    unicode-range="U+0020-F107"
  />
    <missing-glyph />
    <glyph glyph-name="space" unicode=" " horiz-adv-x="200" 
 />
    <glyph glyph-name="uniF104" unicode="&#xf104;" 
d="M460.8 5.41797c0.104492 -0.417969 0.104492 -0.836914 0.104492 -1.25586c0 -37.5889 -34.4473 -68.1621 -76.8516 -68.1621h-256.105c-42.4043 0 -76.8516 30.5732 -76.8516 68.1621c0 0.418945 0.104492 0.837891 0.104492 1.25586l29.3164 330.131
c0.628906 7.3291 6.70117 12.8779 14.0303 12.8779h60.3096c0.837891 55.0742 45.8604 99.5732 101.144 99.5732s100.306 -44.499 101.144 -99.5732h60.3096c7.22461 0 13.4014 -5.54883 14.0303 -12.8779zM256 419.73c-39.6826 0 -72.0361 -31.8301 -72.874 -71.3037
h145.748c-0.837891 39.4736 -33.1914 71.3037 -72.874 71.3037zM384.053 -35.7305c26.4893 0 48.1631 17.5908 48.582 39.2646l-28.165 316.519h-47.3262v-42.9287c0 -7.85254 -6.28223 -14.1348 -14.1348 -14.1348s-14.1348 6.28223 -14.1348 14.1348v42.9287h-145.853
v-42.9287c0 -7.85254 -6.28223 -14.1348 -14.1348 -14.1348s-14.1348 6.28223 -14.1348 14.1348v42.9287h-47.3262l-28.0605 -316.519c0.418945 -21.6738 21.9873 -39.2646 48.582 -39.2646h256.105z" />
    <glyph glyph-name="uniF106" unicode="&#xf106;" 
d="M393.905 137.07c10.416 10.416 26.8145 10.416 37.2305 0c10.0645 -10.416 10.0645 -26.8145 0 -37.2305l-156.005 -156.028c-4.83203 -4.83203 -11.542 -7.81152 -18.9785 -7.81152s-14.1455 2.97949 -19.002 7.81152l-156.005 156.028
c-10.416 10.416 -10.416 26.8145 0 37.2305s26.8145 10.416 37.2305 0l111.338 -111.714v396.58c-0.0234375 14.5215 11.8936 26.0635 26.415 26.0635s26.0635 -11.542 26.0635 -26.0635v-396.557z" />
    <glyph glyph-name="uniF103" unicode="&#xf103;" 
d="M500.529 267.859c7.45703 -23.9824 11.4795 -49.458 11.4707 -75.8594c0 -141.164 -114.845 -256 -256 -256s-256 114.836 -256 256c0 141.155 114.836 256 256 256c114.118 0 211.018 -75.0742 243.951 -178.415l1.09082 -1.28027zM481.305 273.151
c-13.2461 36.6738 -35.1963 69.2031 -63.3643 95.0996l-63.0088 -203.124zM404.248 379.87c-31.124 24.6191 -68.459 41.6787 -109.261 48.3926l59.9189 -207.476zM329.877 244.67l1.20605 -0.907227l0.34668 -1.19727
c-0.488281 0.716797 -1.04004 1.39453 -1.55273 2.10449zM330.331 192c0 40.9766 -33.3457 74.3232 -74.3242 74.3311c-15.6074 0 -30.1006 -4.86328 -42.0742 -13.1211l-17.3994 -16.8232c-9.28125 -12.3945 -14.8477 -27.7305 -14.8477 -44.3779
c0 -8.31641 1.42871 -16.2861 3.95508 -23.751l10.4795 -20.083c3.37891 -4.6084 7.24316 -8.81152 11.5625 -12.5283l19.9932 -12.3213c8.66211 -3.59961 18.1504 -5.60645 28.0928 -5.63184l11.6357 0.950195c35.5762 5.5166 62.9268 36.2617 62.9268 73.3564z
M256 431.483c-39.6387 0 -77.0234 -9.73633 -109.989 -26.8633l177.407 -134.351l-46.2773 160.223c-6.97852 0.619141 -14.0146 0.991211 -21.1406 0.991211zM130.354 395.76c-42.7432 -26.4502 -76.5605 -65.958 -95.8926 -112.921h221.539
c10.7686 0 21.0576 -1.98145 30.6455 -5.43262zM16.5166 192c0 -31.7275 6.25977 -62.001 17.5146 -89.7402l150.156 145.152c5.6084 7.25098 12.2471 13.6338 19.7539 18.9111h-175.559c-7.66309 -23.4121 -11.8662 -48.376 -11.8662 -74.3232zM41.208 86.2383
c23.7656 -48.0615 63.2402 -86.9648 111.607 -110.188l12.0488 229.723zM256 -47.4834c7.74609 0 15.3926 0.404297 22.9492 1.12402l-96.9492 185.872c-1.38867 1.94824 -2.52734 4.07031 -3.75781 6.12695l-9.26562 -176.648
c26.9961 -10.5703 56.3193 -16.4746 87.0234 -16.4746zM296.365 -44.0156c37.418 6.375 71.9121 21.4463 101.303 43.0742l-177.672 109.584c-1.47949 0.636719 -2.9082 1.37988 -4.35352 2.09766zM411.4 10c33.667 28.7891 59.3018 66.6846 72.9766 109.891
l-215.429 -17.6973c-1.95703 -0.28125 -3.93066 -0.520508 -5.92871 -0.676758zM489.009 136.844c4.19531 17.7227 6.4834 36.1709 6.4834 55.1475c0 22.1895 -3.08984 43.6523 -8.77051 64.0586l-154.525 -132.088z" />
    <glyph glyph-name="uniF105" unicode="&#xf105;" 
d="M167.009 366.568c7.21777 7.21777 18.582 7.21777 25.7998 0c6.97461 -6.97461 6.97461 -18.582 0 -25.54l-130.82 -130.82h431.69c10.0625 0 18.3213 -7.99902 18.3213 -18.0615c0 -10.0635 -8.25879 -18.3223 -18.3213 -18.3223h-431.69l130.82 -130.576
c6.97461 -7.21875 6.97461 -18.8418 0 -25.7998c-7.21777 -7.21875 -18.582 -7.21875 -25.7998 0l-161.79 161.79c-6.97461 6.97461 -6.97461 18.582 0 25.54z" />
    <glyph glyph-name="uniF102" unicode="&#xf102;" 
d="M505.027 208.834c9.29785 -9.29785 9.29785 -24.3701 0 -33.668l-152.358 -152.363c-4.64941 -4.64453 -10.7422 -6.97266 -16.835 -6.97266s-12.1865 2.32812 -16.834 6.97266c-9.29785 9.29785 -9.29785 24.3711 0 33.6689l111.718 111.722h-406.911
c-13.1465 0 -23.8066 10.6611 -23.8066 23.8066c0 13.1475 10.6602 23.8066 23.8066 23.8066h406.911l-111.722 111.722c-9.29785 9.29785 -9.29785 24.3711 0 33.6689c9.2959 9.2959 24.3721 9.2959 33.6689 0z" />
    <glyph glyph-name="uniF101" unicode="&#xf101;" 
d="M499.468 9.04102c16.707 -16.71 16.707 -43.7998 0 -60.5088c-16.7109 -16.707 -43.8008 -16.707 -60.5107 0l-111.23 111.231c-0.59082 0.59082 -1.00195 1.28418 -1.55273 1.90039c-33.1992 -21.8867 -72.9385 -34.6602 -115.678 -34.6602
c-116.255 0 -210.496 94.2451 -210.496 210.498c0 116.255 94.2432 210.498 210.498 210.498s210.498 -94.2432 210.498 -210.5c0 -42.7373 -12.7734 -82.4785 -34.6602 -115.678c0.618164 -0.550781 1.31152 -0.963867 1.90234 -1.55469zM210.498 99.9766
c75.9512 0 137.525 61.5723 137.525 137.525s-61.5742 137.527 -137.525 137.527c-75.9531 0 -137.527 -61.5723 -137.527 -137.527c0 -75.9531 61.5723 -137.525 137.527 -137.525z" />
    <glyph glyph-name="uniF100" unicode="&#xf100;" 
d="M275.413 93.6201c10.7041 24.8936 23.0068 46.3828 35.6621 65.0234c9.84473 -8.8252 22.5967 -14.085 36.1211 -14.4648c-31.0186 -44.6758 -61.6992 -108.78 -70.6455 -194.908c-0.777344 -7.5498 -7.10742 -13.2695 -14.6992 -13.2695h-9.42285
c-7.56836 0 -13.9141 5.7373 -14.7012 13.2607c-11.5703 110.801 -59.8887 185.808 -97.959 229.1c5.03516 5.76074 9.04297 12.4443 11.4209 19.9023c3.94531 -0.871094 7.98438 -1.31152 12.0469 -1.31152c3.19629 0 6.33398 0.366211 9.43457 0.894531
c22.5107 -25.1445 46.9033 -59.332 66.2031 -104.217v62.9893c6.15332 -1.95898 12.6367 -3.18066 19.4297 -3.18066c5.9541 0 11.6328 1.03418 17.1094 2.55469v-62.373zM495.892 227.185c14.7168 -8.50391 19.7598 -27.3145 11.2666 -42.04
c-5.70508 -9.86816 -16.0391 -15.3848 -26.6816 -15.3848c-5.21777 0 -10.5117 1.32812 -15.3604 4.12988c-5.65234 3.26953 -15.6201 11.3965 -25.252 20.9785c3.4873 -13.1367 5.52734 -25.8369 5.52734 -32.374c0 -16.9912 -13.7539 -30.7617 -30.7529 -30.7617
c-17 0 -30.7695 13.7705 -30.7695 30.7617c0 6.54492 2.05469 19.2559 5.54199 32.3916c-9.63965 -9.58301 -19.6152 -17.7266 -25.2939 -20.9961c-4.83984 -2.80176 -10.1338 -4.12988 -15.3574 -4.12988c-10.627 0 -20.9727 5.5166 -26.667 15.3848
c-1.87012 3.23926 -2.97656 6.68848 -3.57617 10.1709c1.11328 2.96484 2.11426 5.98828 2.7832 9.1416c6.39648 -2.08008 13.1133 -3.1582 19.8584 -3.1582c20.8838 0 40.377 10.2871 52.3789 27.0781c3.80762 -7.8457 11.7793 -13.3066 21.083 -13.3066
c12.9854 0 23.5127 10.5342 23.5127 23.5029c0 12.9756 -10.5273 23.5039 -23.5127 23.5039c-3.3916 0 -6.59863 -0.751953 -9.51074 -2.0459c1.72168 19.8594 -5.6377 39.8643 -20.8145 53.5254c8.75391 7.85547 15.0771 18.0029 18.502 29.4824
c3.64551 1.52148 7.64258 2.375 11.8408 2.375c16.999 0 30.7529 -13.7725 30.7529 -30.7705c0 -6.52832 -2.04004 -19.2158 -5.51855 -32.3418c9.62305 9.56543 19.582 17.6855 25.2432 20.9453c4.84863 2.80273 10.1426 4.13086 15.3662 4.13086
c10.627 0 20.9707 -5.51855 26.666 -15.3838c8.49609 -14.7158 3.45215 -33.5293 -11.2617 -42.0322c-5.66211 -3.26953 -17.6777 -7.82715 -30.8047 -11.3887c13.1279 -3.55469 25.1514 -8.11914 30.8105 -11.3887zM113.193 344.754
c3.27051 -12.208 9.89941 -22.9512 19.0977 -31.1963c-4.55371 -4.10254 -8.24316 -8.87891 -11.3857 -13.9482c-3.39746 9.77832 -12.5947 16.8516 -23.5303 16.8516c-13.8047 0 -24.9922 -11.2139 -24.9922 -25.0186c0 -13.7949 11.1875 -25.0078 24.9922 -25.0078
c5.2168 0 10.0537 1.60645 14.0625 4.34082c-1.02344 -12.5811 1.40234 -25.5547 8.17871 -37.2832c2.25781 -3.91309 4.99609 -7.4375 7.96191 -10.7305c0.341797 -2.86523 0.573242 -5.45605 0.573242 -7.38965c0 -16.9912 -13.7627 -30.7705 -30.7598 -30.7705
c-16.9912 0 -30.7627 13.7803 -30.7627 30.7705c0 6.5459 2.05762 19.248 5.54492 32.3916c-9.65039 -9.5918 -19.626 -17.7275 -25.293 -21.0049c-4.84277 -2.80078 -10.1338 -4.12891 -15.3506 -4.12891c-10.6377 0 -20.9883 5.52441 -26.6826 15.3916
c-8.50488 14.7168 -3.45508 33.5293 11.2617 42.041c5.66895 3.26855 17.6846 7.83496 30.8193 11.3877c-13.1279 3.55371 -25.1436 8.12695 -30.8105 11.3975c-14.7256 8.49414 -19.7656 27.3076 -11.2637 42.0234c5.7041 9.875 16.0469 15.3945 26.6826 15.3945
c5.21484 -0.0107422 10.5098 -1.33105 15.3486 -4.13086c5.66113 -3.27148 15.6367 -11.4053 25.2773 -20.9873c-3.47656 13.1357 -5.53516 25.8291 -5.53516 32.374c0 16.9912 13.7725 30.7617 30.7627 30.7617c7.99023 0 15.1982 -3.12109 20.6641 -8.11035
c-7.08984 -14.1045 -8.99219 -30.0361 -4.86133 -45.4189zM141.854 246.34c-10.6924 18.5137 -4.33789 42.1836 14.1826 52.8975c7.12305 4.11328 22.248 9.8584 38.7705 14.3311c-16.5127 4.48047 -31.6377 10.2256 -38.7627 14.3389
c-18.5205 10.6875 -24.875 34.3672 -14.1807 52.8779c7.17383 12.4238 20.1836 19.3643 33.5703 19.3643c6.56445 0 13.2275 -1.67383 19.3232 -5.19238c7.12402 -4.11328 19.6758 -14.3486 31.7988 -26.4043c-4.37109 16.5283 -6.96484 32.5068 -6.96484 40.7275
c0 21.3867 17.332 38.7197 38.7119 38.7197c21.3906 0 38.7061 -17.333 38.7061 -38.7197c0 -8.21191 -2.57617 -24.1738 -6.94824 -40.6953c12.1152 12.04 24.6494 22.2588 31.7646 26.3643c6.10254 3.51953 12.7676 5.19141 19.3311 5.19141
c13.3789 0 26.3877 -6.94043 33.5537 -19.3574c10.6953 -18.5098 4.33984 -42.1904 -14.1729 -52.8848c-7.12402 -4.11426 -22.2402 -9.85059 -38.7451 -14.3408c16.5049 -4.47266 31.6299 -10.209 38.7539 -14.3223c18.5215 -10.7021 24.8662 -34.374 14.1729 -52.8945
c-7.16504 -12.417 -20.1768 -19.3545 -33.5625 -19.3545c-6.56348 0 -13.2285 1.66992 -19.3232 5.19043c-7.11426 4.11328 -19.6592 14.3389 -31.7822 26.3965c4.38184 -16.5381 6.95801 -32.5088 6.95801 -40.7363c0 -21.373 -17.3154 -38.7119 -38.7061 -38.7119
c-21.3799 0 -38.7119 17.3389 -38.7119 38.7119c0 8.23633 2.59375 24.2148 6.97363 40.7617c-12.1338 -12.0654 -24.6914 -22.3086 -31.8164 -26.4229c-6.0957 -3.52051 -12.7578 -5.2002 -19.3301 -5.2002c-13.3789 0 -26.3887 6.94727 -33.5645 19.3643zM258.29 352.933
c-21.7334 0 -39.3506 -17.6426 -39.3506 -39.375c0 -21.7236 17.6172 -39.3564 39.3506 -39.3564c21.7383 0 39.3564 17.6338 39.3564 39.3564c0 21.7324 -17.6182 39.375 -39.3564 39.375z" />
    <glyph glyph-name="uniF107" unicode="&#xf107;" 
d="M430.644 280.896c7.22168 -7.22168 7.22168 -18.5908 0 -25.8125c-6.97754 -6.97754 -18.5908 -6.97754 -25.5518 0l-130.884 130.883v-431.912c0 -10.0674 -8.00195 -18.0703 -18.0693 -18.0703c-10.0684 0 -18.3311 8.00293 -18.3311 18.0703v431.929
l-130.622 -130.883c-7.22168 -6.97754 -18.8516 -6.97754 -25.8125 0c-7.22168 7.22168 -7.22168 18.5908 0 25.8115l161.867 161.868c6.97754 6.97754 18.5908 6.97754 25.5518 0z" />
  </font>
</defs></svg>
